<svg id="Component_95_1" data-name="Component 95 – 1" xmlns="http://www.w3.org/2000/svg" width="31.082" height="23.696" viewBox="0 0 31.082 23.696">
  <path id="Path_717" data-name="Path 717" d="M307.444,404.612a1.113,1.113,0,0,0-1.4-.671l-6.548,2.139a1.089,1.089,0,0,0-.695.672l-.624,1.8a1.176,1.176,0,0,0-.247-.029h-20.4a1.12,1.12,0,0,0-.88.422,1.042,1.042,0,0,0-.185.933c.3,1.042,1.823,6.028,3.011,10.087a1.1,1.1,0,0,0,1.068.792h14.928a1.1,1.1,0,0,0,1.048-.729l4.2-12.088,6.029-1.969A1.062,1.062,0,0,0,307.444,404.612ZM296.2,414.224H280.172l-.961-3.467c-.01-.035-.026-.066-.038-.1h18.268Z" transform="translate(-276.421 -403.884)" fill="#303030"/>
  <ellipse id="Ellipse_76" data-name="Ellipse 76" cx="2.58" cy="2.496" rx="2.58" ry="2.496" transform="translate(3.32 18.704)" fill="#303030"/>
  <ellipse id="Ellipse_77" data-name="Ellipse 77" cx="2.58" cy="2.496" rx="2.58" ry="2.496" transform="translate(14.67 18.704)" fill="#303030"/>
</svg>
