<svg xmlns="http://www.w3.org/2000/svg" width="33.143" height="29" viewBox="0 0 33.143 29">
  <path id="Icon_awesome-gift" data-name="Icon awesome-gift" d="M2.071,29.179A2.069,2.069,0,0,0,4.143,31.25H14.5V20.893H2.071ZM18.643,31.25H29a2.069,2.069,0,0,0,2.071-2.071V20.893H18.643ZM31.071,10.536H28.346A5.644,5.644,0,0,0,29,7.946a5.7,5.7,0,0,0-5.7-5.7c-2.693,0-4.434,1.379-6.667,4.421C14.4,3.629,12.662,2.25,9.969,2.25a5.7,5.7,0,0,0-5.7,5.7,5.565,5.565,0,0,0,.654,2.589H2.071A2.069,2.069,0,0,0,0,12.607v4.258A1.039,1.039,0,0,0,1.036,17.9H32.107a1.039,1.039,0,0,0,1.036-1.036V12.607A2.069,2.069,0,0,0,31.071,10.536Zm-21.109,0a2.589,2.589,0,0,1,0-5.179c1.288,0,2.24.214,5.573,5.179H9.962Zm13.341,0H17.73c3.327-4.952,4.253-5.179,5.573-5.179a2.589,2.589,0,0,1,0,5.179Z" transform="translate(0 -2.25)" fill="#ffc313"/>
</svg>
