<svg xmlns="http://www.w3.org/2000/svg" width="35.428" height="32.897" viewBox="0 0 35.428 32.897">
  <path id="Icon_ionic-ios-star" data-name="Icon ionic-ios-star" d="M36.333,14.762H24.7L21.166,4.213a1.281,1.281,0,0,0-2.4,0L15.227,14.762H3.515A1.269,1.269,0,0,0,2.25,16.028a.93.93,0,0,0,.024.214,1.216,1.216,0,0,0,.53.894l9.561,6.738L8.7,34.54a1.269,1.269,0,0,0,.435,1.423,1.224,1.224,0,0,0,.712.308,1.55,1.55,0,0,0,.791-.285l9.331-6.651L29.3,35.988a1.482,1.482,0,0,0,.791.285,1.136,1.136,0,0,0,.7-.308,1.253,1.253,0,0,0,.435-1.423L27.556,23.872l9.482-6.8.229-.2a1.327,1.327,0,0,0,.411-.846A1.339,1.339,0,0,0,36.333,14.762Z" transform="translate(-2.25 -3.375)" fill="#ffc313"/>
</svg>
