<svg xmlns="http://www.w3.org/2000/svg" width="38" height="22.377" viewBox="0 0 38 22.377">
  <g id="Вы_смотрели" data-name="Вы смотрели" transform="translate(1.5 1.5)">
    <path id="Path_596" data-name="Path 596" d="M694.914,670.133s-7.835,9.688-17.5,9.688-17.5-9.688-17.5-9.688,7.835-9.688,17.5-9.688S694.914,670.133,694.914,670.133Z" transform="translate(-659.914 -660.445)" fill="#fff" stroke="#ffc313" stroke-linejoin="round" stroke-miterlimit="10" stroke-width="3"/>
    <ellipse id="Ellipse_61" data-name="Ellipse 61" cx="6.654" cy="6.654" rx="6.654" ry="6.654" transform="translate(10.846 3.034)" fill="#ffc313"/>
  </g>
</svg>
